Year,Season,1080?,Height,LineID,CameraID,FullcamID,StartDate,RatFirstNight ,2nd_night,3rd_night
2020,Autumn,Cam,High,A,1,CamHighA1,,NA,NA,NA
2020,Summer,Cam,High,A,1,CamHighA1,11/03/2020,1,1,1
2020,Winter,Cam,High,A,1,CamHighA1,,NA,NA,NA
2020,Autumn,Cam,High,A,9,CamHighA9,14/06/2020,0,0,1
2020,Summer,Cam,High,A,9,CamHighA9,11/03/2020,1,1,1
2020,Winter,Cam,High,A,9,CamHighA9,21/08/2020,0,0,0
2020,Autumn,Cam,High,A,17,CamHighA17,14/06/2020,0,0,0
2020,Summer,Cam,High,A,17,CamHighA17,11/03/2020,1,1,1
2020,Winter,Cam,High,A,17,CamHighA17,21/08/2020,0,0,0
2020,Autumn,Cam,High,A,25,CamHighA25,17/06/2020,1,1,0
2020,Summer,Cam,High,A,25,CamHighA25,,NA,NA,NA
2020,Winter,Cam,High,A,25,CamHighA25,21/08/2020,0,0,0
2020,Autumn,Cam,High,B,1,CamHighB1,09/06/2020,1,1,1
2020,Summer,Cam,High,B,1,CamHighB1,,NA,NA,NA
2020,Winter,Cam,High,B,1,CamHighB1,15/08/2020,1,0,1
2020,Autumn,Cam,High,B,9,CamHighB9,09/06/2020,NA,NA,NA
2020,Summer,Cam,High,B,9,CamHighB9,11/03/2020,1,1,1
2020,Winter,Cam,High,B,9,CamHighB9,15/08/2020,0,0,0
2020,Autumn,Cam,High,B,17,CamHighB17,09/06/2020,1,1,1
2020,Summer,Cam,High,B,17,CamHighB17,11/03/2020,1,1,0
2020,Winter,Cam,High,B,17,CamHighB17,15/08/2020,0,0,0
2020,Autumn,Cam,High,B,25,CamHighB25,09/06/2020,1,0,0
2020,Summer,Cam,High,B,25,CamHighB25,11/03/2020,1,1,1
2020,Winter,Cam,High,B,25,CamHighB25,15/08/2020,0,1,1
2020,Autumn,Cam,Low,A,1,CamLowA1,16/06/2020,1,1,1
2020,Summer,Cam,Low,A,1,CamLowA1,11/03/2020,1,1,1
2020,Winter,Cam,Low,A,1,CamLowA1,20/08/2020,0,0,0
2020,Autumn,Cam,Low,A,9,CamLowA9,16/06/2020,0,0,0
2020,Summer,Cam,Low,A,9,CamLowA9,11/03/2020,1,1,1
2020,Winter,Cam,Low,A,9,CamLowA9,20/08/2020,0,0,0
2020,Autumn,Cam,Low,A,17,CamLowA17,16/06/2020,0,0,0
2020,Summer,Cam,Low,A,17,CamLowA17,12/03/2020,1,1,1
2020,Winter,Cam,Low,A,17,CamLowA17,20/08/2020,0,0,0
2020,Autumn,Cam,Low,A,25,CamLowA25,,NA,NA,NA
2020,Summer,Cam,Low,A,25,CamLowA25,11/03/2020,1,1,1
2020,Winter,Cam,Low,A,25,CamLowA25,20/08/2020,0,0,0
2020,Autumn,Cam,Low,B,1,CamLowB1,09/06/2020,1,1,1
2020,Summer,Cam,Low,B,1,CamLowB1,,NA,NA,NA
2020,Winter,Cam,Low,B,1,CamLowB1,15/08/2020,0,0,0
2020,Autumn,Cam,Low,B,9,CamLowB9,09/06/2020,1,0,0
2020,Summer,Cam,Low,B,9,CamLowB9,11/03/2020,1,1,0
2020,Winter,Cam,Low,B,9,CamLowB9,15/08/2020,0,0,0
2020,Autumn,Cam,Low,B,17,CamLowB17,09/06/2020,1,1,1
2020,Summer,Cam,Low,B,17,CamLowB17,,NA,NA,NA
2020,Winter,Cam,Low,B,17,CamLowB17,15/08/2020,1,0,0
2020,Autumn,Cam,Low,B,25,CamLowB25,09/06/2020,1,1,1
2020,Summer,Cam,Low,B,25,CamLowB25,11/03/2020,1,1,1
2020,Winter,Cam,Low,B,25,CamLowB25,15/08/2020,0,0,0
2020,Autumn,Cam,Mid,A,1,CamMidA1,14/06/2020,1,1,0
2020,Summer,Cam,Mid,A,1,CamMidA1,11/03/2020,1,1,1
2020,Winter,Cam,Mid,A,1,CamMidA1,24/08/2020,0,0,0
2020,Autumn,Cam,Mid,A,9,CamMidA9,14/06/2020,0,1,0
2020,Summer,Cam,Mid,A,9,CamMidA9,11/03/2020,1,1,1
2020,Winter,Cam,Mid,A,9,CamMidA9,24/08/2020,0,0,0
2020,Autumn,Cam,Mid,A,17,CamMidA17,14/06/2020,0,0,0
2020,Summer,Cam,Mid,A,17,CamMidA17,11/03/2020,1,1,1
2020,Winter,Cam,Mid,A,17,CamMidA17,24/08/2020,0,0,0
2020,Autumn,Cam,Mid,A,25,CamMidA25,14/06/2020,0,0,1
2020,Summer,Cam,Mid,A,25,CamMidA25,11/03/2020,1,1,1
2020,Winter,Cam,Mid,A,25,CamMidA25,24/08/2020,1,1,1
2020,Autumn,Cam,Mid,B,1,CamMidB1,09/06/2020,1,1,1
2020,Summer,Cam,Mid,B,1,CamMidB1,12/03/2020,1,1,1
2020,Winter,Cam,Mid,B,1,CamMidB1,15/08/2020,0,0,0
2020,Autumn,Cam,Mid,B,9,CamMidB9,09/06/2020,1,1,1
2020,Summer,Cam,Mid,B,9,CamMidB9,12/03/2020,1,1,1
2020,Winter,Cam,Mid,B,9,CamMidB9,15/08/2020,0,0,0
2020,Autumn,Cam,Mid,B,17,CamMidB17,10/06/2020,0,0,0
2020,Summer,Cam,Mid,B,17,CamMidB17,12/03/2020,1,1,1
2020,Winter,Cam,Mid,B,17,CamMidB17,15/08/2020,0,0,0
2020,Autumn,Cam,Mid,B,25,CamMidB25,09/06/2020,1,1,1
2020,Summer,Cam,Mid,B,25,CamMidB25,,NA,NA,NA
2020,Winter,Cam,Mid,B,25,CamMidB25,15/08/2020,0,0,0
